<svg width="47px" height="47px" viewBox="0 0 47 47" version="1.1" xmlns="http://www.w3.org/2000/svg" xmlns:xlink="http://www.w3.org/1999/xlink">

    <g id="Web" stroke="none" stroke-width="1" fill="none" fill-rule="evenodd">
        <g id="04-Careers---a.-Default" transform="translate(-538.000000, -3692.000000)">
            <g id="Mailing-list" transform="translate(0.000000, 3420.000000)">
                <g id="Group-6" transform="translate(538.000000, 272.000000)">
                    <path d="M15.8124629,37.2187614 C15.8124629,37.4687613 15.6405888,37.6093859 15.2968391,37.6406354 C14.9530895,37.6718848 14.7812154,37.5625111 14.7812154,37.3125112 C14.7812154,37.0625113 14.9374655,36.9375121 15.2499642,36.9375121 C15.4374638,36.9375121 15.5780885,36.9687615 15.6718382,37.0312618 C15.765588,37.0937622 15.8124629,37.1562611 15.8124629,37.2187614 Z M12.9062198,36.8437623 C12.9687202,36.5937624 13.1562197,36.5156381 13.4687185,36.6093879 C13.7812173,36.7031376 13.9218419,36.8281369 13.8905925,36.984387 C13.859343,37.1406371 13.7812173,37.2500108 13.656218,37.3125112 C13.5312188,37.3750115 13.4062182,37.3750115 13.2812189,37.3125112 C13.1562197,37.2500108 13.0468445,37.1718865 12.9530947,37.0781367 C12.8593449,36.984387 12.8437195,36.9062626 12.9062198,36.8437623 Z M17.03121,36.6562627 C17.3437088,36.6562627 17.5155843,36.7500125 17.5468338,36.9375121 C17.5780832,37.1250116 17.4374585,37.2812617 17.1249598,37.406261 C16.9999605,37.406261 16.8905853,37.3906355 16.7968355,37.3593861 C16.7030858,37.3281366 16.6405854,37.2187614 16.609336,37.0312618 C16.5780865,36.8437623 16.7187112,36.7187631 17.03121,36.6562627 Z M23.2186952,0.750098348 C27.4686846,0.750098348 31.4061752,1.75009644 35.0311671,3.7500912 C38.6561589,5.75008595 41.4999017,8.46882947 43.5623967,11.9063217 C45.6873921,15.4688133 46.7498891,19.3750544 46.7498891,23.6250438 C46.7498891,28.812531 45.2967676,33.4531449 42.3905245,37.5468856 C39.4842815,41.6406263 35.6874155,44.4687436 30.9999267,46.0312404 C30.4999284,46.1562396 30.1093038,46.0937407 29.8280545,45.8437408 C29.5468052,45.593741 29.4061805,45.2812422 29.4061805,44.9062431 L29.4061805,37.0312618 C29.4061805,35.0312671 28.8749313,33.5937696 27.8124343,32.7187721 C30.1249292,32.4687722 31.8436747,32.1562735 32.968672,31.7812744 C34.7186683,31.1562754 36.0624146,30.2187776 36.9999124,28.9687811 C38.0624094,27.3437854 38.5936586,25.1250402 38.5936586,22.3125469 C38.5936586,21.1250493 38.3749096,20.0938018 37.9374101,19.2188043 C37.6249114,18.5938053 37.0311618,17.8125577 36.1561644,16.8750599 C36.4061643,16.2500609 36.5624129,15.5000627 36.6249133,14.6250653 C36.6874136,13.2500681 36.4686632,11.8750723 35.9686648,10.5000751 C35.3436659,10.3125755 34.4686684,10.4375748 33.3436711,10.8750742 C32.5936729,11.187573 31.7186754,11.6250724 30.7186774,12.1875711 L29.4999303,13.0313191 C27.5624344,12.4688204 25.5780651,12.1875711 23.5468195,12.1875711 C21.5155738,12.1875711 19.562454,12.4688204 17.6874584,13.0313191 L16.4687113,12.1875711 C15.4687132,11.6250724 14.5624664,11.187573 13.7499678,10.8750742 C12.6249705,10.4375748 11.7812225,10.3125755 11.2187238,10.5000751 C10.6562252,11.8750723 10.4374762,13.2500681 10.5624754,14.6250653 C10.5624754,15.5000627 10.6874746,16.2188115 10.9374745,16.7813101 C10.1874763,17.7188079 9.64060309,18.5781813 9.29685343,19.359429 C8.95310377,20.1406766 8.78122966,21.1250493 8.78122966,22.3125469 C8.78122966,25.1250402 9.28122799,27.3125345 10.2812261,28.8750313 C11.1562235,30.1875282 12.4687204,31.1562754 14.2187167,31.7812744 C15.343714,32.1562735 17.03121,32.4687722 19.2812046,32.7187721 C18.4687061,33.4687703 17.9687078,34.5312673 17.7812082,35.9062645 C16.7187112,36.4062629 15.6874637,36.5937624 14.6874656,36.4687632 C13.0624699,36.343764 11.812472,35.500016 10.9374745,33.9375192 C10.5624754,33.2500213 10.0624771,32.6875227 9.4374781,32.2500232 C8.99997866,32.0000234 8.53122978,31.7812744 8.03123145,31.5937748 L7.37498301,31.500025 C6.68748513,31.500025 6.32811003,31.6094003 6.29686058,31.8281493 C6.26561113,32.0468983 6.4062358,32.2812727 6.71873458,32.5312726 L7.18748346,32.9062717 C7.62498289,33.1562716 8.0624809,33.5625201 8.49998033,34.1250188 C8.87497944,34.5625182 9.18747821,35.0625165 9.4374781,35.6250152 L9.8124772,36.3750134 C10.124976,37.3125112 10.7187255,38.0312599 11.593723,38.5312583 C12.3437212,38.9687577 13.2499695,39.250007 14.3124665,39.3750063 C15.0624647,39.4375066 15.8437123,39.4062557 16.6562109,39.2812565 L17.6874584,39.1875067 L17.7812082,44.9062431 C17.7812082,45.2812422 17.6405835,45.593741 17.3593342,45.8437408 C17.0780849,46.0937407 16.6874603,46.1562396 16.187462,46.0312404 C11.4374729,44.4687436 7.59373201,41.6406263 4.65623949,37.5468856 C1.71874698,33.4531449 0.25,28.812531 0.25,23.6250438 C0.25,19.3750544 1.24999809,15.5000627 3.24999285,12.0000715 C5.2499876,8.50008035 7.999982,5.75008595 11.4999732,3.7500912 C14.9999644,1.75009644 18.9062055,0.750098348 23.2186952,0.750098348 Z M9.34372832,33.0937712 C9.46872754,32.968772 9.62497765,33.0000215 9.8124772,33.187521 C9.99997675,33.3750206 10.0312262,33.5312707 9.90622698,33.6562699 C9.78122775,33.7812691 9.62497765,33.7500197 9.4374781,33.5625201 C9.24997854,33.3750206 9.21872909,33.2187705 9.34372832,33.0937712 Z M8.31248078,32.343773 C8.43748,32.2187738 8.59373011,32.2031484 8.78122966,32.2968981 C8.96872921,32.3906479 9.03122954,32.5156471 8.96872921,32.6718972 C8.90622889,32.8281473 8.76560422,32.8437714 8.54685522,32.7187721 C8.32810622,32.5937729 8.24998045,32.4687722 8.31248078,32.343773 Z M11.4062234,35.6250152 C11.4687237,35.5625149 11.5624735,35.5468909 11.6874727,35.5781403 C11.812472,35.6093898 11.9218472,35.6718901 12.0155969,35.7656399 C12.1093467,35.8593896 12.1718471,35.9687649 12.2030965,36.0937641 C12.234346,36.2187633 12.2187219,36.3125131 12.1562216,36.3750134 C11.9687221,36.562513 11.7499731,36.5312635 11.4999732,36.2812636 C11.374974,36.1562644 11.3124736,36.0312638 11.3124736,35.9062645 C11.3124736,35.7812653 11.3437231,35.6875155 11.4062234,35.6250152 Z M10.2812261,34.3125183 C10.4062253,34.250018 10.5156005,34.234394 10.6093503,34.2656434 C10.7031001,34.2968929 10.7812244,34.3750187 10.8437247,34.5000179 C11.0312243,34.7500178 11.0312243,34.9375173 10.8437247,35.0625165 C10.7812244,35.1250169 10.7031001,35.1250169 10.6093503,35.0625165 C10.5156005,35.0000162 10.4062253,34.9375173 10.2812261,34.875017 C10.1562269,34.5625182 10.1562269,34.3750187 10.2812261,34.3125183 Z" id="fa-github"></path>
                </g>
            </g>
        </g>
    </g>
</svg>